NYPD Shooting Incident Data Report
…
Added 2 new columns MONTH and YEAR as we will need these columns in our analysis.(Just to see the trend with respect to year and month)

Let us execute these commands all together to do some tidying-up of our raw data:

nypd_data <- nypd_data %>%
  select(OCCUR_DATE:VIC_RACE) %>%
  rename(MURDERED = STATISTICAL_MURDER_FLAG) %>%
  mutate(OCCUR_DATE = mdy(OCCUR_DATE)) %>%
  mutate(YEAR = year(OCCUR_DATE)) %>%
  mutate(MONTH = month(OCCUR_DATE)) %>%
  select(-c(OCCUR_TIME,LOCATION_DESC,PRECINCT,JURISDICTION_CODE))
nypd_data

## # A tibble: 23,585 x 11
##    OCCUR_DATE BORO     MURDERED PERP_AGE_GROUP PERP_SEX PERP_RACE VIC_AGE_GROUP
##    <date>     <chr>    <lgl>    <chr>          <chr>    <chr>     <chr>        
##  1 2006-08-27 BRONX    TRUE     <NA>           <NA>     <NA>      25-44        
##  2 2011-03-11 QUEENS   FALSE    <NA>           <NA>     <NA>      65+          
##  3 2019-10-06 BROOKLYN FALSE    <NA>           <NA>     <NA>      18-24        
##  4 2011-09-04 BRONX    FALSE    <NA>           <NA>     <NA>      <18          
##  5 2013-05-27 QUEENS   FALSE    <NA>           <NA>     <NA>      18-24        
##  6 2013-09-01 BROOKLYN FALSE    <NA>           <NA>     <NA>      <18          
##  7 2010-06-05 BROOKLYN FALSE    <NA>           <NA>     <NA>      <18          
##  8 2020-03-20 BROOKLYN FALSE    <NA>           <NA>     <NA>      25-44        
##  9 2014-07-04 QUEENS   FALSE    <NA>           <NA>     <NA>      18-24        
## 10 2015-10-18 QUEENS   FALSE    <NA>           <NA>     <NA>      18-24        
## # ... with 23,575 more rows, and 4 more variables: VIC_SEX <chr>,
## #   VIC_RACE <chr>, YEAR <dbl>, MONTH <dbl>
…
